[gd_scene load_steps=2 format=2]

[ext_resource path="res://asset/ui/ui.png" type="Texture" id=1]




[node name="HintBox" type="NinePatchRect"]
margin_right = 96.0
margin_bottom = 32.0
rect_clip_content = true
size_flags_horizontal = 5
size_flags_vertical = 5
texture = ExtResource( 1 )
patch_margin_left = 8
patch_margin_top = 8
patch_margin_right = 8
patch_margin_bottom = 8
axis_stretch_horizontal = 2
axis_stretch_vertical = 2
__meta__ = {
"_edit_use_anchors_": false
}
