[gd_resource type="StyleBoxTexture" load_steps=2 format=2]

[ext_resource path="res://asset/ui/button_sheet.png" type="Texture" id=1]

[resource]
texture = ExtResource( 1 )
region_rect = Rect2( 0, 0, 16, 16 )
margin_left = 8.0
margin_right = 8.0
margin_top = 8.0
margin_bottom = 8.0
