[gd_scene load_steps=3 format=2]

[ext_resource path="res://old/ui/common/BoxPanel.tscn" type="PackedScene" id=1]

[sub_resource type="StyleBoxEmpty" id=1]

[node name="DefaultPanel" type="PanelContainer"]
margin_right = 14.0
margin_bottom = 14.0
custom_styles/panel = SubResource( 1 )
__meta__ = {
"_edit_use_anchors_": false
}

[node name="HintBox" parent="." instance=ExtResource( 1 )]
margin_right = 14.0
margin_bottom = 14.0
