[gd_scene load_steps=3 format=2]

[ext_resource path="res://main/Main.tscn" type="PackedScene" id=1]
[ext_resource path="res://state/title_menu/TitleMenu.gd" type="Script" id=2]

[node name="Main" instance=ExtResource( 1 )]
first_state_class = ExtResource( 2 )
