[gd_scene load_steps=9 format=2]

[ext_resource path="res://old/campaign/alpha/biomes/Swamp.tres" type="Resource" id=1]
[ext_resource path="res://old/gameplay/entity/rune-slab/RuneSlab.tscn" type="PackedScene" id=2]
[ext_resource path="res://old/gameplay/spell/scatter-blast/ScatterBlast.tscn" type="PackedScene" id=3]
[ext_resource path="res://old/battle/Battle.tscn" type="PackedScene" id=4]
[ext_resource path="res://old/gameplay/common/MovementProfile.gd" type="Script" id=6]
[ext_resource path="res://old/gameplay/entity/creature/zombie/Zombie.tscn" type="PackedScene" id=7]

[sub_resource type="Resource" id=1]
resource_local_to_scene = true
resource_name = "MovementProfile"
script = ExtResource( 6 )
mask = 17
operation = 0

[sub_resource type="Resource" id=2]
resource_local_to_scene = true
resource_name = "MovementProfile"
script = ExtResource( 6 )
mask = 33
operation = 0

[node name="Battle" instance=ExtResource( 4 )]

[node name="Map" parent="." index="2"]
tile_data = PoolIntArray( 0, 0, 0, 1, 0, 0, 2, 0, 0, 3, 0, 0, 4, 0, 0, 5, 0, 0, 6, 0, 0, 7, 0, 0, 8, 0, 0, 9, 0, 0, 10, 0, 0, 11, 0, 0, 12, 0, 0, 13, 0, 0, 14, 0, 0, 15, 0, 0, 16, 0, 0, 17, 0, 0, 18, 0, 0, 19, 0, 0, 20, 0, 0, 65536, 0, 0, 65537, 0, 0, 65538, 0, 0, 65539, 0, 0, 65540, -1073741809, 0, 65541, -1073741811, 0, 65542, -1073741811, 0, 65543, -1073741811, 0, 65544, -1073741811, 0, 65545, 15, 0, 65546, 0, 0, 65547, 0, 0, 65548, 0, 0, 65549, 0, 0, 65550, 0, 0, 65551, 0, 0, 65552, 0, 0, 65553, 0, 0, 65554, 0, 0, 65555, 0, 0, 65556, 0, 0, 131072, 0, 0, 131073, 0, 0, 131074, 0, 0, 131075, -1073741809, 0, 131076, 1610612750, 0, 131077, 2, 0, 131078, 2, 0, 131079, 2, 0, 131080, 2, 0, 131081, -1073741810, 0, 131082, -1073741811, 0, 131083, -1073741811, 0, 131084, -1073741811, 0, 131085, -1073741811, 0, 131086, -1073741811, 0, 131087, -1073741811, 0, 131088, -1073741811, 0, 131089, -1073741811, 0, 131090, -1073741811, 0, 131091, -1073741811, 0, 131092, -1073741811, 0, 196608, 0, 0, 196609, 0, 0, 196610, -1073741809, 0, 196611, 1610612750, 0, 196612, 2, 0, 196613, 2, 0, 196614, 2, 0, 196615, 1, 0, 196616, 2, 0, 196617, 2, 0, 196618, 1, 0, 196619, 1, 0, 196620, 1, 0, 196621, 1, 0, 196622, 1, 0, 196623, 1, 0, 196624, 1, 0, 196625, 1, 0, 196626, 1, 0, 196627, 1, 0, 196628, 1, 0, 262144, 0, 0, 262145, -1073741809, 0, 262146, 1610612750, 0, 262147, 2, 0, 262148, 2, 0, 262149, 2, 0, 262150, 2, 0, 262151, 2, 0, 262152, 2, 0, 262153, 1, 0, 262154, 1, 0, 262155, 1, 0, 262156, 7, 0, 262157, -1610612730, 0, 262158, -1610612730, 0, 262159, -1610612730, 0, 262160, -1610612729, 0, 262161, 1, 0, 262162, 1, 0, 262163, 1, 0, 262164, 1, 0, 327680, 0, 0, 327681, 1610612749, 0, 327682, 2, 0, 327683, 2, 0, 327684, 2, 0, 327685, 2, 0, 327686, 1, 0, 327687, 2, 0, 327688, 1, 0, 327689, 2, 0, 327690, 2, 0, 327691, 1, 0, 327692, -1073741817, 0, 327693, -1073741816, 0, 327694, 4, 0, 327695, 4, 0, 327696, 1610612742, 0, 327697, 1, 0, 327698, 1, 0, 327699, 1, 0, 327700, 1, 0, 393216, 0, 0, 393217, 1610612749, 0, 393218, 2, 0, 393219, 7, 0, 393220, -1610612730, 0, 393221, -1610612729, 0, 393222, 2, 0, 393223, 14, 0, 393224, -1610612723, 0, 393225, -1610612723, 0, 393226, -1610612722, 0, 393227, 2, 0, 393228, 2, 0, 393229, 6, 0, 393230, 4, 0, 393231, 4, 0, 393232, 1610612742, 0, 393233, 1, 0, 393234, 1, 0, 393235, 14, 0, 393236, -1610612723, 0, 458752, 0, 0, 458753, 1610612749, 0, 458754, 2, 0, 458755, 6, 0, 458756, 4, 0, 458757, 1610612743, 0, 458758, 2, 0, 458759, 13, 0, 458760, 0, 0, 458761, 0, 0, 458762, 1610612749, 0, 458763, 1, 0, 458764, 2, 0, 458765, -1073741817, 0, 458766, -1073741816, 0, 458767, 4, 0, 458768, 1610612742, 0, 458769, 14, 0, 458770, -1610612723, 0, 458771, -1610612721, 0, 458772, 0, 0, 524288, 0, 0, 524289, 1610612749, 0, 524290, 2, 0, 524291, 6, 0, 524292, 1610612742, 0, 524293, 2, 0, 524294, 2, 0, 524295, -1073741810, 0, 524296, -1073741811, 0, 524297, -1073741811, 0, 524298, 1610612750, 0, 524299, 2, 0, 524300, 1, 0, 524301, 2, 0, 524302, 6, 0, 524303, 4, 0, 524304, 1610612742, 0, 524305, 13, 0, 524306, 0, 0, 524307, 0, 0, 524308, 0, 0, 589824, 0, 0, 589825, 1610612749, 0, 589826, 2, 0, 589827, 6, 0, 589828, 4, 0, 589829, -1610612729, 0, 589830, 2, 0, 589831, 2, 0, 589832, 2, 0, 589833, 2, 0, 589834, 2, 0, 589835, 2, 0, 589836, 1, 0, 589837, 1, 0, 589838, 6, 0, 589839, 4, 0, 589840, 1610612742, 0, 589841, -1073741810, 0, 589842, -1073741811, 0, 589843, 15, 0, 589844, 0, 0, 655360, 0, 0, 655361, 1610612749, 0, 655362, 2, 0, 655363, -1073741817, 0, 655364, -1073741816, 0, 655365, 1610612742, 0, 655366, 2, 0, 655367, 2, 0, 655368, 2, 0, 655369, 2, 0, 655370, 2, 0, 655371, 2, 0, 655372, 2, 0, 655373, 1, 0, 655374, 6, 0, 655375, 4, 0, 655376, 1610612742, 0, 655377, 2, 0, 655378, 2, 0, 655379, 13, 0, 655380, 0, 0, 720896, 0, 0, 720897, 1610612749, 0, 720898, 2, 0, 720899, 2, 0, 720900, -1073741817, 0, 720901, 4, 0, 720902, 14, 0, 720903, -1610612722, 0, 720904, 2, 0, 720905, 2, 0, 720906, 2, 0, 720907, 2, 0, 720908, 1, 0, 720909, 14, 0, 720910, -1610612723, 0, 720911, -1610612722, 0, 720912, 1610612743, 0, 720913, 2, 0, 720914, 2, 0, 720915, 13, 0, 720916, 0, 0, 786432, -1073741811, 0, 786433, 1610612750, 0, 786434, 2, 0, 786435, 2, 0, 786436, 2, 0, 786437, 14, 0, 786438, -1610612721, 0, 786439, 1610612751, 0, 786440, -1610612722, 0, 786441, 2, 0, 786442, 2, 0, 786443, 2, 0, 786444, 2, 0, 786445, 13, 0, 786446, 0, 0, 786447, 1610612749, 0, 786448, 2, 0, 786449, 2, 0, 786450, 2, 0, 786451, 13, 0, 786452, 0, 0, 851968, 2, 0, 851969, 2, 0, 851970, 2, 0, 851971, 2, 0, 851972, 2, 0, 851973, 13, 0, 851974, 0, 0, 851975, 0, 0, 851976, 1610612749, 0, 851977, 2, 0, 851978, 2, 0, 851979, 2, 0, 851980, 2, 0, 851981, -1073741810, 0, 851982, -1073741811, 0, 851983, 1610612750, 0, 851984, 2, 0, 851985, 2, 0, 851986, 2, 0, 851987, 13, 0, 851988, 0, 0, 917504, 2, 0, 917505, 2, 0, 917506, 2, 0, 917507, 2, 0, 917508, 2, 0, 917509, 13, 0, 917510, -1073741809, 0, 917511, -1073741811, 0, 917512, 1610612750, 0, 917513, -1610612730, 0, 917514, -1610612730, 0, 917515, -1610612729, 0, 917516, 2, 0, 917517, 1, 0, 917518, 2, 0, 917519, 2, 0, 917520, 2, 0, 917521, 2, 0, 917522, 2, 0, 917523, 13, 0, 917524, 0, 0, 983040, 2, 0, 983041, 2, 0, 983042, 2, 0, 983043, 14, 0, 983044, -1610612723, 0, 983045, -1610612721, 0, 983046, 1610612749, 0, 983047, 2, 0, 983048, 6, 0, 983049, 4, 0, 983050, 4, 0, 983051, 4, 0, 983052, -1610612729, 0, 983053, 2, 0, 983054, 2, 0, 983055, 2, 0, 983056, 2, 0, 983057, 1, 0, 983058, 2, 0, 983059, 13, 0, 983060, 0, 0, 1048576, -1610612723, 0, 1048577, -1610612723, 0, 1048578, -1610612723, 0, 1048579, -1610612721, 0, 1048580, -1073741809, 0, 1048581, -1073741811, 0, 1048582, 1610612750, 0, 1048583, 2, 0, 1048584, -1073741817, 0, 1048585, -1073741818, 0, 1048586, -1073741818, 0, 1048587, -1073741816, 0, 1048588, 4, 0, 1048589, -1610612729, 0, 1048590, 2, 0, 1048591, 1, 0, 1048592, 1, 0, 1048593, 2, 0, 1048594, 14, 0, 1048595, -1610612721, 0, 1048596, 0, 0, 1114112, 0, 0, 1114113, 0, 0, 1114114, 0, 0, 1114115, -1073741809, 0, 1114116, 1610612750, 0, 1114117, 2, 0, 1114118, 2, 0, 1114119, 2, 0, 1114120, 2, 0, 1114121, 2, 0, 1114122, 2, 0, 1114123, -1073741817, 0, 1114124, -1073741818, 0, 1114125, 1610612743, 0, 1114126, 2, 0, 1114127, 2, 0, 1114128, 2, 0, 1114129, 14, 0, 1114130, -1610612721, 0, 1114131, 0, 0, 1114132, 0, 0, 1179648, 0, 0, 1179649, 0, 0, 1179650, 0, 0, 1179651, 1610612749, 0, 1179652, 2, 0, 1179653, 2, 0, 1179654, 2, 0, 1179655, 2, 0, 1179656, 2, 0, 1179657, 2, 0, 1179658, 2, 0, 1179659, 2, 0, 1179660, 2, 0, 1179661, 2, 0, 1179662, 14, 0, 1179663, -1610612723, 0, 1179664, -1610612723, 0, 1179665, -1610612721, 0, 1179666, 0, 0, 1179667, 0, 0, 1179668, 0, 0, 1245184, 0, 0, 1245185, 0, 0, 1245186, 0, 0, 1245187, 1610612749, 0, 1245188, 2, 0, 1245189, 2, 0, 1245190, 2, 0, 1245191, 14, 0, 1245192, -1610612723, 0, 1245193, -1610612723, 0, 1245194, -1610612723, 0, 1245195, -1610612723, 0, 1245196, -1610612723, 0, 1245197, -1610612723, 0, 1245198, -1610612721, 0, 1245199, 0, 0, 1245200, 0, 0, 1245201, 0, 0, 1245202, 0, 0, 1245203, 0, 0, 1245204, 0, 0, 1310720, 0, 0, 1310721, 0, 0, 1310722, 0, 0, 1310723, 1610612749, 0, 1310724, 2, 0, 1310725, 2, 0, 1310726, 2, 0, 1310727, 13, 0, 1310728, 0, 0, 1310729, 0, 0, 1310730, 0, 0, 1310731, 0, 0, 1310732, 0, 0, 1310733, 0, 0, 1310734, 0, 0, 1310735, 0, 0, 1310736, 0, 0, 1310737, 0, 0, 1310738, 0, 0, 1310739, 0, 0, 1310740, 0, 0 )
biome = ExtResource( 1 )

[node name="Zombie" parent="Map" index="4" instance=ExtResource( 7 )]
position = Vector2( 284, 64 )
tile = Vector2( 17, 4 )
movement_profile = SubResource( 1 )

[node name="Zombie2" parent="Map" index="5" instance=ExtResource( 7 )]
position = Vector2( 108, 48 )
tile = Vector2( 6, 3 )
movement_profile = SubResource( 1 )

[node name="Zombie3" parent="Map" index="6" instance=ExtResource( 7 )]
position = Vector2( 76, 64 )
tile = Vector2( 4, 4 )
movement_profile = SubResource( 1 )

[node name="Zombie4" parent="Map" index="7" instance=ExtResource( 7 )]
position = Vector2( 172, 144 )
tile = Vector2( 10, 9 )
movement_profile = SubResource( 1 )

[node name="Zombie5" parent="Map" index="8" instance=ExtResource( 7 )]
position = Vector2( 156, 176 )
tile = Vector2( 9, 11 )
movement_profile = SubResource( 1 )

[node name="Zombie6" parent="Map" index="9" instance=ExtResource( 7 )]
position = Vector2( 268, 224 )
tile = Vector2( 16, 14 )
movement_profile = SubResource( 1 )

[node name="Zombie7" parent="Map" index="10" instance=ExtResource( 7 )]
position = Vector2( 236, 240 )
tile = Vector2( 14, 15 )
movement_profile = SubResource( 1 )

[node name="RuneSlab" parent="Map" index="11" instance=ExtResource( 2 )]
position = Vector2( 284, 160 )
tile = Vector2( 17, 10 )
movement_profile = SubResource( 2 )

[node name="LoreProvider" parent="Map/RuneSlab" index="2"]
spell_scn = ExtResource( 3 )

[editable path="Map/RuneSlab"]
