[gd_scene load_steps=18 format=2]

[ext_resource path="res://old/battle/Battle.tscn" type="PackedScene" id=1]
[ext_resource path="res://old/battle/map/Biome.gd" type="Script" id=2]
[ext_resource path="res://old/battle/map/entity_generator/EntityDensityGenerator.gd" type="Script" id=3]
[ext_resource path="res://old/gameplay/entity/obstacle/plant/Bush.tscn" type="PackedScene" id=4]
[ext_resource path="res://old/gameplay/entity/obstacle/plant/Tree.tscn" type="PackedScene" id=5]
[ext_resource path="res://old/gameplay/spell/cause-rooted/CauseRooted.tscn" type="PackedScene" id=6]
[ext_resource path="res://old/gameplay/common/MovementProfile.gd" type="Script" id=7]
[ext_resource path="res://old/gameplay/entity/rune-slab/RuneSlab.tscn" type="PackedScene" id=8]
[ext_resource path="res://old/gameplay/spell/lightning-arc/LightningArc.tscn" type="PackedScene" id=9]
[ext_resource path="res://old/gameplay/entity/creature/hell-beast/HellBeast.tscn" type="PackedScene" id=10]
[ext_resource path="res://old/gameplay/entity/creature/slime/Slime.tscn" type="PackedScene" id=11]

[sub_resource type="Resource" id=1]
resource_name = "EntityDensityGenerator"
script = ExtResource( 3 )
on_tile_type = "grass"
entity_scn = ExtResource( 4 )
density = 0.2

[sub_resource type="Resource" id=2]
resource_name = "EntityDensityGenerator"
script = ExtResource( 3 )
on_tile_type = "grass"
entity_scn = ExtResource( 5 )
density = 0.2

[sub_resource type="Resource" id=3]
resource_local_to_scene = true
resource_name = "Biome"
script = ExtResource( 2 )
gen_type = 0
entity_generators = [ SubResource( 1 ), SubResource( 2 ) ]

[sub_resource type="Resource" id=4]
resource_local_to_scene = true
resource_name = "MovementProfile"
script = ExtResource( 7 )
mask = 33
operation = 0

[sub_resource type="Resource" id=5]
resource_local_to_scene = true
resource_name = "MovementProfile"
script = ExtResource( 7 )
mask = 17
operation = 0

[sub_resource type="Resource" id=6]
resource_local_to_scene = true
resource_name = "MovementProfile"
script = ExtResource( 7 )
mask = 17
operation = 0

[node name="Battle" instance=ExtResource( 1 )]

[node name="Map" parent="." index="2"]
tile_data = PoolIntArray( 0, 0, 0, 1, 0, 0, 2, 0, 0, 3, 0, 0, 4, 0, 0, 5, 1610612749, 0, 6, 1, 0, 7, 1, 0, 8, 1, 0, 9, 13, 0, 10, 0, 0, 11, 0, 0, 12, 0, 0, 13, 0, 0, 14, 0, 0, 15, 0, 0, 16, 0, 0, 17, 0, 0, 18, 0, 0, 19, 0, 0, 20, 0, 0, 65536, 0, 0, 65537, 0, 0, 65538, 0, 0, 65539, -1073741809, 0, 65540, -1073741811, 0, 65541, 1610612750, 0, 65542, 1, 0, 65543, 1, 0, 65544, 1, 0, 65545, -1073741810, 0, 65546, -1073741811, 0, 65547, 15, 0, 65548, 0, 0, 65549, 0, 0, 65550, 0, 0, 65551, 0, 0, 65552, 0, 0, 65553, 0, 0, 65554, 0, 0, 65555, 0, 0, 65556, 0, 0, 131072, -1073741811, 0, 131073, 15, 0, 131074, -1073741809, 0, 131075, 1610612750, 0, 131076, 2, 0, 131077, 2, 0, 131078, 2, 0, 131079, 1, 0, 131080, 1, 0, 131081, 1, 0, 131082, 2, 0, 131083, 13, 0, 131084, 0, 0, 131085, 0, 0, 131086, 0, 0, 131087, 0, 0, 131088, 0, 0, 131089, 0, 0, 131090, 0, 0, 131091, 0, 0, 131092, 0, 0, 196608, 4, 0, 196609, -1073741810, 0, 196610, 1610612750, 0, 196611, -1610612729, 0, 196612, 2, 0, 196613, 2, 0, 196614, 2, 0, 196615, 1, 0, 196616, 1, 0, 196617, 1, 0, 196618, 2, 0, 196619, -1073741810, 0, 196620, 15, 0, 196621, 0, 0, 196622, 0, 0, 196623, 0, 0, 196624, 0, 0, 196625, 0, 0, 196626, 0, 0, 196627, 0, 0, 196628, 0, 0, 262144, 4, 0, 262145, 4, 0, 262146, 4, 0, 262147, -1610612732, 0, 262148, -1610612729, 0, 262149, 2, 0, 262150, 2, 0, 262151, 2, 0, 262152, 1, 0, 262153, 1, 0, 262154, 1, 0, 262155, 2, 0, 262156, 13, 0, 262157, 0, 0, 262158, 0, 0, 262159, 0, 0, 262160, -1073741809, 0, 262161, -1073741811, 0, 262162, -1073741811, 0, 262163, -1073741811, 0, 262164, -1073741811, 0, 327680, 4, 0, 327681, 4, 0, 327682, 4, 0, 327683, 4, 0, 327684, -1610612732, 0, 327685, -1610612730, 0, 327686, -1610612729, 0, 327687, 2, 0, 327688, 2, 0, 327689, 1, 0, 327690, 1, 0, 327691, 2, 0, 327692, -1073741810, 0, 327693, 15, 0, 327694, 0, 0, 327695, -1073741809, 0, 327696, 1610612750, 0, 327697, 1, 0, 327698, 1, 0, 327699, 1, 0, 327700, 1, 0, 393216, -1073741818, 0, 393217, -1610612732, 0, 393218, 4, 0, 393219, 4, 0, 393220, 4, 0, 393221, 4, 0, 393222, -1610612732, 0, 393223, -1610612730, 0, 393224, -1610612729, 0, 393225, 2, 0, 393226, 1, 0, 393227, 1, 0, 393228, 2, 0, 393229, 13, 0, 393230, 0, 0, 393231, 1610612749, 0, 393232, 2, 0, 393233, 1, 0, 393234, 1, 0, 393235, 1, 0, 393236, -1073741823, 0, 458752, 1, 0, 458753, -1073741817, 0, 458754, -1610612732, 0, 458755, 4, 0, 458756, 4, 0, 458757, 4, 0, 458758, 4, 0, 458759, 4, 0, 458760, 1610612742, 0, 458761, 2, 0, 458762, 2, 0, 458763, 2, 0, 458764, 2, 0, 458765, 13, 0, 458766, -1073741809, 0, 458767, 1610612750, 0, 458768, 2, 0, 458769, 1, 0, 458770, 1, 0, 458771, 1, 0, 458772, -1073741823, 0, 524288, 1, 0, 524289, 1, 0, 524290, -1073741817, 0, 524291, 4, 0, 524292, 4, 0, 524293, 4, 0, 524294, 4, 0, 524295, 4, 0, 524296, 1610612742, 0, 524297, 2, 0, 524298, 2, 0, 524299, 2, 0, 524300, 2, 0, 524301, -1073741810, 0, 524302, 1610612750, 0, 524303, 2, 0, 524304, 2, 0, 524305, 2, 0, 524306, 2, 0, 524307, 14, 0, 524308, -1610612723, 0, 589824, 1, 0, 589825, 1, 0, 589826, 1, 0, 589827, 6, 0, 589828, 4, 0, 589829, 4, 0, 589830, 4, 0, 589831, 4, 0, 589832, -1610612732, 0, 589833, -1610612729, 0, 589834, 2, 0, 589835, 2, 0, 589836, 2, 0, 589837, 2, 0, 589838, 2, 0, 589839, 2, 0, 589840, 2, 0, 589841, 2, 0, 589842, 2, 0, 589843, 13, 0, 589844, 0, 0, 655360, 1, 0, 655361, 1, 0, 655362, 1, 0, 655363, 6, 0, 655364, 4, 0, 655365, 4, 0, 655366, -1610612732, 0, 655367, -1610612732, 0, 655368, -1610612732, 0, 655369, -1610612732, 0, 655370, -1610612729, 0, 655371, 2, 0, 655372, 2, 0, 655373, 1, 0, 655374, 1, 0, 655375, 2, 0, 655376, 2, 0, 655377, 2, 0, 655378, 2, 0, 655379, 13, 0, 655380, 0, 0, 720896, 1, 0, 720897, 1, 0, 720898, 1, 0, 720899, 6, 0, 720900, 4, 0, 720901, 4, 0, 720902, -1610612732, 0, 720903, -1610612732, 0, 720904, -1610612732, 0, 720905, -1610612732, 0, 720906, 1610612742, 0, 720907, 2, 0, 720908, 2, 0, 720909, 1, 0, 720910, 1, 0, 720911, 1, 0, 720912, 2, 0, 720913, 2, 0, 720914, 14, 0, 720915, -1610612721, 0, 720916, 0, 0, 786432, 1, 0, 786433, 7, 0, 786434, -1610612730, 0, 786435, 4, 0, 786436, 4, 0, 786437, -1610612732, 0, 786438, -1610612732, 0, 786439, -1610612732, 0, 786440, -1610612732, 0, 786441, -1610612732, 0, 786442, 1610612742, 0, 786443, 2, 0, 786444, 2, 0, 786445, 1, 0, 786446, 1, 0, 786447, 1, 0, 786448, 1, 0, 786449, 2, 0, 786450, 13, 0, 786451, 0, 0, 786452, 0, 0, 851968, 1, 0, 851969, 6, 0, 851970, 4, 0, 851971, 4, 0, 851972, 4, 0, 851973, -1610612732, 0, 851974, -1610612732, 0, 851975, -1073741818, 0, 851976, -1073741818, 0, 851977, -1073741818, 0, 851978, 1610612743, 0, 851979, 2, 0, 851980, 2, 0, 851981, 1, 0, 851982, 1, 0, 851983, 1, 0, 851984, 1, 0, 851985, 1, 0, 851986, 13, 0, 851987, 0, 0, 851988, 0, 0, 917504, -1610612730, 0, 917505, 4, 0, 917506, 4, 0, 917507, 4, 0, 917508, -1610612732, 0, 917509, -1073741818, 0, 917510, 1610612743, 0, 917511, 2, 0, 917512, 2, 0, 917513, 2, 0, 917514, 2, 0, 917515, 2, 0, 917516, 1, 0, 917517, 1, 0, 917518, 1, 0, 917519, 1, 0, 917520, 1, 0, 917521, 14, 0, 917522, -1610612721, 0, 917523, 0, 0, 917524, 0, 0, 983040, 4, 0, 983041, 4, 0, 983042, 4, 0, 983043, 4, 0, 983044, 1610612742, 0, 983045, 2, 0, 983046, 2, 0, 983047, 2, 0, 983048, 2, 0, 983049, 2, 0, 983050, 2, 0, 983051, 1, 0, 983052, 1, 0, 983053, 1, 0, 983054, 1, 0, 983055, 1, 0, 983056, 14, 0, 983057, -1610612721, 0, 983058, 0, 0, 983059, 0, 0, 983060, 0, 0, 1048576, -1610612723, 0, 1048577, -1610612723, 0, 1048578, -1610612722, 0, 1048579, -1610612732, 0, 1048580, 1610612743, 0, 1048581, 2, 0, 1048582, 2, 0, 1048583, 2, 0, 1048584, 2, 0, 1048585, 1, 0, 1048586, 1, 0, 1048587, 1, 0, 1048588, 1, 0, 1048589, 1, 0, 1048590, 1, 0, 1048591, 14, 0, 1048592, -1610612721, 0, 1048593, 0, 0, 1048594, 0, 0, 1048595, 0, 0, 1048596, 0, 0, 1114112, 0, 0, 1114113, 0, 0, 1114114, 1610612751, 0, 1114115, -1610612722, 0, 1114116, 2, 0, 1114117, 2, 0, 1114118, 2, 0, 1114119, 2, 0, 1114120, 1, 0, 1114121, 1, 0, 1114122, 1, 0, 1114123, 1, 0, 1114124, 14, 0, 1114125, -1610612723, 0, 1114126, -1610612723, 0, 1114127, -1610612721, 0, 1114128, 0, 0, 1114129, 0, 0, 1114130, 0, 0, 1114131, 0, 0, 1114132, 0, 0, 1179648, 0, 0, 1179649, 0, 0, 1179650, 0, 0, 1179651, 1610612751, 0, 1179652, -1610612723, 0, 1179653, -1610612723, 0, 1179654, -1610612722, 0, 1179655, 1, 0, 1179656, 1, 0, 1179657, 1, 0, 1179658, 14, 0, 1179659, -1610612723, 0, 1179660, -1610612721, 0, 1179661, 0, 0, 1179662, 0, 0, 1179663, 0, 0, 1179664, 0, 0, 1179665, 0, 0, 1179666, 0, 0, 1179667, 0, 0, 1179668, 0, 0, 1245184, 0, 0, 1245185, 0, 0, 1245186, 0, 0, 1245187, 0, 0, 1245188, 0, 0, 1245189, 0, 0, 1245190, 1610612751, 0, 1245191, -1610612722, 0, 1245192, 1, 0, 1245193, 1, 0, 1245194, 13, 0, 1245195, 0, 0, 1245196, 0, 0, 1245197, 0, 0, 1245198, 0, 0, 1245199, 0, 0, 1245200, 0, 0, 1245201, 0, 0, 1245202, 0, 0, 1245203, 0, 0, 1245204, 0, 0, 1310720, 0, 0, 1310721, 0, 0, 1310722, 0, 0, 1310723, 0, 0, 1310724, 0, 0, 1310725, 0, 0, 1310726, 0, 0, 1310727, 1610612749, 0, 1310728, 1, 0, 1310729, 1, 0, 1310730, 13, 0, 1310731, 0, 0, 1310732, 0, 0, 1310733, 0, 0, 1310734, 0, 0, 1310735, 0, 0, 1310736, 0, 0, 1310737, 0, 0, 1310738, 0, 0, 1310739, 0, 0, 1310740, 0, 0 )
biome = SubResource( 3 )

[node name="RuneSlab" parent="Map" index="4" instance=ExtResource( 8 )]
position = Vector2( 64, 32 )
tile = Vector2( 4, 2 )
movement_profile = SubResource( 4 )

[node name="LoreProvider" parent="Map/RuneSlab" index="2"]
spell_scn = ExtResource( 6 )

[node name="RuneSlab2" parent="Map" index="5" instance=ExtResource( 8 )]
position = Vector2( 32, 160 )
tile = Vector2( 2, 10 )
movement_profile = SubResource( 4 )

[node name="LoreProvider" parent="Map/RuneSlab2" index="2"]
spell_scn = ExtResource( 9 )

[node name="HellBeast" parent="Map" index="6" instance=ExtResource( 10 )]
position = Vector2( 240, 208 )
tile = Vector2( 15, 13 )
movement_profile = SubResource( 5 )

[node name="HellBeast2" parent="Map" index="7" instance=ExtResource( 10 )]
position = Vector2( 192, 176 )
tile = Vector2( 12, 11 )
movement_profile = SubResource( 5 )

[node name="HellBeast3" parent="Map" index="8" instance=ExtResource( 10 )]
position = Vector2( 192, 224 )
tile = Vector2( 12, 14 )
movement_profile = SubResource( 5 )

[node name="HellBeast4" parent="Map" index="9" instance=ExtResource( 10 )]
position = Vector2( 112, 48 )
tile = Vector2( 7, 3 )
movement_profile = SubResource( 5 )

[node name="HellBeast5" parent="Map" index="10" instance=ExtResource( 10 )]
position = Vector2( 160, 64 )
tile = Vector2( 10, 4 )
movement_profile = SubResource( 5 )

[node name="Slime" parent="Map" index="11" instance=ExtResource( 11 )]
position = Vector2( 288, 96 )
tile = Vector2( 18, 6 )
movement_profile = SubResource( 6 )

[editable path="Map/RuneSlab"]
[editable path="Map/RuneSlab2"]
