[gd_scene load_steps=11 format=2]

[ext_resource path="res://old/battle/Battle.tscn" type="PackedScene" id=1]
[ext_resource path="res://old/battle/map/Biome.gd" type="Script" id=2]
[ext_resource path="res://old/gameplay/common/MovementProfile.gd" type="Script" id=3]
[ext_resource path="res://old/gameplay/entity/obstacle/Rock.tscn" type="PackedScene" id=4]
[ext_resource path="res://old/gameplay/entity/creature/slime/Slime.tscn" type="PackedScene" id=5]
[ext_resource path="res://old/gameplay/entity/creature/winged-eater/WingedEater.tscn" type="PackedScene" id=6]

[sub_resource type="Resource" id=1]
resource_local_to_scene = true
resource_name = "Biome"
script = ExtResource( 2 )
gen_type = 0
entity_generators = [  ]

[sub_resource type="Resource" id=2]
resource_local_to_scene = true
resource_name = "MovementProfile"
script = ExtResource( 3 )
mask = 5
operation = 0

[sub_resource type="Resource" id=3]
resource_local_to_scene = true
resource_name = "MovementProfile"
script = ExtResource( 3 )
mask = 17
operation = 0

[sub_resource type="Resource" id=4]
resource_local_to_scene = true
resource_name = "MovementProfile"
script = ExtResource( 3 )
mask = 18
operation = 0

[node name="Battle" instance=ExtResource( 1 )]

[node name="Map" parent="." index="2"]
tile_data = PoolIntArray( 0, 0, 0, 1, 0, 0, 2, 0, 0, 3, 0, 0, 4, 0, 0, 5, 0, 0, 6, 0, 0, 7, 1610612749, 0, 8, 1, 0, 9, 1, 0, 10, 1, 0, 11, 1, 0, 12, 1, 0, 13, 13, 0, 14, 0, 0, 15, 0, 0, 16, 0, 0, 17, 0, 0, 18, 0, 0, 19, 0, 0, 20, 0, 0, 65536, 0, 0, 65537, 0, 0, 65538, 0, 0, 65539, 0, 0, 65540, 0, 0, 65541, 0, 0, 65542, 0, 0, 65543, 1610612749, 0, 65544, 1, 0, 65545, 1, 0, 65546, 1, 0, 65547, 1, 0, 65548, 1, 0, 65549, 13, 0, 65550, 0, 0, 65551, 0, 0, 65552, 0, 0, 65553, 0, 0, 65554, 0, 0, 65555, 0, 0, 65556, 0, 0, 131072, 0, 0, 131073, 0, 0, 131074, 1610612736, 0, 131075, 1610612736, 0, 131076, 1610612736, 0, 131077, -1073741809, 0, 131078, -1073741811, 0, 131079, 1610612750, 0, 131080, 1, 0, 131081, 1, 0, 131082, 1, 0, 131083, 1, 0, 131084, 1, 0, 131085, -1073741810, 0, 131086, -1073741811, 0, 131087, 15, 0, 131088, -1610612736, 0, 131089, -1610612736, 0, 131090, -1610612736, 0, 131091, 0, 0, 131092, 0, 0, 196608, 0, 0, 196609, 0, 0, 196610, 1610612736, 0, 196611, 1610612736, 0, 196612, -1073741809, 0, 196613, 1610612750, 0, 196614, 1, 0, 196615, 1, 0, 196616, 1, 0, 196617, 1, 0, 196618, 1, 0, 196619, 1, 0, 196620, 1, 0, 196621, 1, 0, 196622, 1, 0, 196623, -1073741810, 0, 196624, 15, 0, 196625, -1610612736, 0, 196626, -1610612736, 0, 196627, 0, 0, 196628, 0, 0, 262144, 0, 0, 262145, 0, 0, 262146, 1610612736, 0, 262147, -1073741809, 0, 262148, 1610612750, 0, 262149, 1, 0, 262150, 1, 0, 262151, 1, 0, 262152, 1, 0, 262153, 1, 0, 262154, 1, 0, 262155, 1, 0, 262156, 1, 0, 262157, 1, 0, 262158, 1, 0, 262159, 1, 0, 262160, -1073741810, 0, 262161, 15, 0, 262162, -1610612736, 0, 262163, 0, 0, 262164, 0, 0, 327680, 0, 0, 327681, 1610612736, 0, 327682, -1073741809, 0, 327683, 1610612750, 0, 327684, 1, 0, 327685, 1, 0, 327686, 1, 0, 327687, 1, 0, 327688, 1, 0, 327689, 1, 0, 327690, 1, 0, 327691, 1, 0, 327692, 1, 0, 327693, 1, 0, 327694, 1, 0, 327695, 1, 0, 327696, 1, 0, 327697, 13, 0, 327698, -1610612736, 0, 327699, 0, 0, 327700, 0, 0, 393216, 0, 0, 393217, 0, 0, 393218, 1610612749, 0, 393219, 1, 0, 393220, 1, 0, 393221, 1, 0, 393222, 1, 0, 393223, 1, 0, 393224, 1, 0, 393225, 1, 0, 393226, 1, 0, 393227, 1, 0, 393228, 1, 0, 393229, 1, 0, 393230, 1, 0, 393231, 1, 0, 393232, 1, 0, 393233, 13, 0, 393234, -1610612736, 0, 393235, 0, 0, 393236, 0, 0, 458752, 0, 0, 458753, 0, 0, 458754, 1610612749, 0, 458755, 1, 0, 458756, 1, 0, 458757, 1, 0, 458758, 1, 0, 458759, 14, 0, 458760, -1610612723, 0, 458761, -1610612722, 0, 458762, 1, 0, 458763, 1, 0, 458764, 1, 0, 458765, 1, 0, 458766, 1, 0, 458767, 1, 0, 458768, 1, 0, 458769, -1073741810, 0, 458770, 15, 0, 458771, 0, 0, 458772, 0, 0, 524288, 0, 0, 524289, 0, 0, 524290, 1610612749, 0, 524291, 1, 0, 524292, 1, 0, 524293, 1, 0, 524294, 1, 0, 524295, 13, 0, 524296, 0, 0, 524297, 1610612749, 0, 524298, 1, 0, 524299, 1, 0, 524300, 1, 0, 524301, 1, 0, 524302, 1, 0, 524303, 1, 0, 524304, 1, 0, 524305, 1, 0, 524306, 13, 0, 524307, 0, 0, 524308, 0, 0, 589824, 0, 0, 589825, 0, 0, 589826, 1610612749, 0, 589827, 1, 0, 589828, 1, 0, 589829, 1, 0, 589830, 1, 0, 589831, -1073741810, 0, 589832, -1073741811, 0, 589833, 1610612750, 0, 589834, 1, 0, 589835, 1, 0, 589836, 1, 0, 589837, 1, 0, 589838, 1, 0, 589839, 1, 0, 589840, 1, 0, 589841, 1, 0, 589842, 13, 0, 589843, 0, 0, 589844, 0, 0, 655360, 0, 0, 655361, 0, 0, 655362, 1610612749, 0, 655363, 1, 0, 655364, 1, 0, 655365, 1, 0, 655366, 1, 0, 655367, 1, 0, 655368, 1, 0, 655369, 1, 0, 655370, 1, 0, 655371, 1, 0, 655372, 1, 0, 655373, 1, 0, 655374, 1, 0, 655375, 1, 0, 655376, 1, 0, 655377, 1, 0, 655378, 13, 0, 655379, 0, 0, 655380, 0, 0, 720896, 0, 0, 720897, 0, 0, 720898, 1610612749, 0, 720899, 1, 0, 720900, 1, 0, 720901, 1, 0, 720902, 1, 0, 720903, 1, 0, 720904, 1, 0, 720905, 1, 0, 720906, 1, 0, 720907, 1, 0, 720908, 14, 0, 720909, -1610612722, 0, 720910, 1, 0, 720911, 1, 0, 720912, 1, 0, 720913, 1, 0, 720914, -1073741810, 0, 720915, -1073741811, 0, 720916, -1073741811, 0, 786432, 0, 0, 786433, 0, 0, 786434, 1610612749, 0, 786435, 1, 0, 786436, 1, 0, 786437, 1, 0, 786438, 1, 0, 786439, 1, 0, 786440, 1, 0, 786441, 1, 0, 786442, 1, 0, 786443, 14, 0, 786444, -1610612721, 0, 786445, 1610612751, 0, 786446, -1610612722, 0, 786447, 1, 0, 786448, 1, 0, 786449, 1, 0, 786450, 1, 0, 786451, 1, 0, 786452, 1, 0, 851968, 0, 0, 851969, 0, 0, 851970, 1610612749, 0, 851971, 1, 0, 851972, 1, 0, 851973, 1, 0, 851974, 1, 0, 851975, 1, 0, 851976, 1, 0, 851977, 1, 0, 851978, 14, 0, 851979, -1610612721, 0, 851980, 0, 0, 851981, 0, 0, 851982, 1610612751, 0, 851983, -1610612722, 0, 851984, 1, 0, 851985, 1, 0, 851986, 1, 0, 851987, 1, 0, 851988, 1, 0, 917504, 0, 0, 917505, 0, 0, 917506, 1610612749, 0, 917507, 1, 0, 917508, 1, 0, 917509, 1, 0, 917510, 1, 0, 917511, 1, 0, 917512, 1, 0, 917513, 1, 0, 917514, -1073741810, 0, 917515, 15, 0, 917516, 0, 0, 917517, 0, 0, 917518, -1073741809, 0, 917519, 1610612750, 0, 917520, 1, 0, 917521, 1, 0, 917522, 1, 0, 917523, 1, 0, 917524, 1, 0, 983040, 0, 0, 983041, 0, 0, 983042, 1610612751, 0, 983043, -1610612722, 0, 983044, 1, 0, 983045, 1, 0, 983046, 1, 0, 983047, 1, 0, 983048, 1, 0, 983049, 1, 0, 983050, 1, 0, 983051, -1073741810, 0, 983052, 15, 0, 983053, -1073741809, 0, 983054, 1610612750, 0, 983055, 1, 0, 983056, 1, 0, 983057, 1, 0, 983058, 1, 0, 983059, 1, 0, 983060, 1, 0, 1048576, 0, 0, 1048577, 0, 0, 1048578, 0, 0, 1048579, 1610612751, 0, 1048580, -1610612722, 0, 1048581, 1, 0, 1048582, 1, 0, 1048583, 1, 0, 1048584, 1, 0, 1048585, 1, 0, 1048586, 1, 0, 1048587, 1, 0, 1048588, -1073741810, 0, 1048589, 1610612750, 0, 1048590, 1, 0, 1048591, 1, 0, 1048592, 1, 0, 1048593, 1, 0, 1048594, 14, 0, 1048595, -1610612723, 0, 1048596, -1610612723, 0, 1114112, 0, 0, 1114113, 0, 0, 1114114, 0, 0, 1114115, 0, 0, 1114116, 1610612749, 0, 1114117, 1, 0, 1114118, 1, 0, 1114119, 1, 0, 1114120, 1, 0, 1114121, 1, 0, 1114122, 1, 0, 1114123, 1, 0, 1114124, 1, 0, 1114125, 1, 0, 1114126, 1, 0, 1114127, 1, 0, 1114128, 1, 0, 1114129, 1, 0, 1114130, 13, 0, 1114131, 0, 0, 1114132, 0, 0, 1179648, 0, 0, 1179649, 0, 0, 1179650, 0, 0, 1179651, 0, 0, 1179652, 1610612751, 0, 1179653, -1610612723, 0, 1179654, -1610612723, 0, 1179655, -1610612722, 0, 1179656, -1610612735, 0, 1179657, -1610612735, 0, 1179658, -1610612735, 0, 1179659, -1610612735, 0, 1179660, -1610612735, 0, 1179661, -1610612735, 0, 1179662, -1610612735, 0, 1179663, -1610612735, 0, 1179664, 14, 0, 1179665, -1610612723, 0, 1179666, -1610612721, 0, 1179667, 0, 0, 1179668, 0, 0, 1245184, 0, 0, 1245185, 0, 0, 1245186, 0, 0, 1245187, 0, 0, 1245188, 0, 0, 1245189, 0, 0, 1245190, 0, 0, 1245191, 1610612751, 0, 1245192, -1610612723, 0, 1245193, -1610612723, 0, 1245194, -1610612723, 0, 1245195, -1610612723, 0, 1245196, -1610612723, 0, 1245197, -1610612723, 0, 1245198, -1610612723, 0, 1245199, -1610612723, 0, 1245200, -1610612721, 0, 1245201, 0, 0, 1245202, 0, 0, 1245203, 0, 0, 1245204, 0, 0, 1310720, 0, 0, 1310721, 0, 0, 1310722, 0, 0, 1310723, 0, 0, 1310724, 0, 0, 1310725, 0, 0, 1310726, 0, 0, 1310727, 0, 0, 1310728, 0, 0, 1310729, 0, 0, 1310730, 0, 0, 1310731, 0, 0, 1310732, 0, 0, 1310733, 0, 0, 1310734, 0, 0, 1310735, 0, 0, 1310736, 0, 0, 1310737, 0, 0, 1310738, 0, 0, 1310739, 0, 0, 1310740, 0, 0 )
biome = SubResource( 1 )

[node name="Rock" parent="Map" index="4" instance=ExtResource( 4 )]
position = Vector2( 64, 96 )
tile = Vector2( 4, 6 )
movement_profile = SubResource( 2 )

[node name="Rock2" parent="Map" index="5" instance=ExtResource( 4 )]
position = Vector2( 224, 80 )
tile = Vector2( 14, 5 )
movement_profile = SubResource( 2 )

[node name="Rock3" parent="Map" index="6" instance=ExtResource( 4 )]
position = Vector2( 128, 176 )
tile = Vector2( 8, 11 )
movement_profile = SubResource( 2 )

[node name="Rock4" parent="Map" index="7" instance=ExtResource( 4 )]
position = Vector2( 64, 208 )
tile = Vector2( 4, 13 )
movement_profile = SubResource( 2 )

[node name="Rock5" parent="Map" index="8" instance=ExtResource( 4 )]
position = Vector2( 144, 272 )
tile = Vector2( 9, 17 )
movement_profile = SubResource( 2 )

[node name="Rock6" parent="Map" index="9" instance=ExtResource( 4 )]
position = Vector2( 288, 240 )
tile = Vector2( 18, 15 )
movement_profile = SubResource( 2 )

[node name="Rock7" parent="Map" index="10" instance=ExtResource( 4 )]
position = Vector2( 128, 16 )
tile = Vector2( 8, 1 )
movement_profile = SubResource( 2 )

[node name="Rock8" parent="Map" index="11" instance=ExtResource( 4 )]
position = Vector2( 208, 48 )
tile = Vector2( 13, 3 )
movement_profile = SubResource( 2 )

[node name="Rock9" parent="Map" index="12" instance=ExtResource( 4 )]
position = Vector2( 160, 128 )
tile = Vector2( 10, 8 )
movement_profile = SubResource( 2 )

[node name="Rock10" parent="Map" index="13" instance=ExtResource( 4 )]
position = Vector2( 272, 128 )
tile = Vector2( 17, 8 )
movement_profile = SubResource( 2 )

[node name="Rock11" parent="Map" index="14" instance=ExtResource( 4 )]
position = Vector2( 208, 128 )
tile = Vector2( 13, 8 )
movement_profile = SubResource( 2 )

[node name="Rock12" parent="Map" index="15" instance=ExtResource( 4 )]
position = Vector2( 48, 144 )
tile = Vector2( 3, 9 )
movement_profile = SubResource( 2 )

[node name="Rock13" parent="Map" index="16" instance=ExtResource( 4 )]
position = Vector2( 240, 288 )
tile = Vector2( 15, 18 )
movement_profile = SubResource( 2 )

[node name="Slime" parent="Map" index="17" instance=ExtResource( 5 )]
position = Vector2( 112, 64 )
tile = Vector2( 7, 4 )
movement_profile = SubResource( 3 )

[node name="Slime2" parent="Map" index="18" instance=ExtResource( 5 )]
position = Vector2( 192, 80 )
tile = Vector2( 12, 5 )
movement_profile = SubResource( 3 )

[node name="Slime3" parent="Map" index="19" instance=ExtResource( 5 )]
position = Vector2( 240, 160 )
tile = Vector2( 15, 10 )
movement_profile = SubResource( 3 )

[node name="Slime4" parent="Map" index="20" instance=ExtResource( 5 )]
position = Vector2( 80, 144 )
tile = Vector2( 5, 9 )
movement_profile = SubResource( 3 )

[node name="Slime5" parent="Map" index="21" instance=ExtResource( 5 )]
position = Vector2( 160, 160 )
tile = Vector2( 10, 10 )
movement_profile = SubResource( 3 )

[node name="Slime6" parent="Map" index="22" instance=ExtResource( 5 )]
position = Vector2( 96, 208 )
tile = Vector2( 6, 13 )
movement_profile = SubResource( 3 )

[node name="Slime7" parent="Map" index="23" instance=ExtResource( 5 )]
position = Vector2( 128, 240 )
tile = Vector2( 8, 15 )
movement_profile = SubResource( 3 )

[node name="Slime8" parent="Map" index="24" instance=ExtResource( 5 )]
position = Vector2( 256, 256 )
tile = Vector2( 16, 16 )
movement_profile = SubResource( 3 )

[node name="Slime9" parent="Map" index="25" instance=ExtResource( 5 )]
position = Vector2( 272, 208 )
tile = Vector2( 17, 13 )
movement_profile = SubResource( 3 )

[node name="WingedEater" parent="Map" index="26" instance=ExtResource( 6 )]
position = Vector2( 160, 64 )
tile = Vector2( 10, 4 )
movement_profile = SubResource( 4 )

[node name="WingedEater2" parent="Map" index="27" instance=ExtResource( 6 )]
position = Vector2( 80, 112 )
tile = Vector2( 5, 7 )
movement_profile = SubResource( 4 )

[node name="WingedEater3" parent="Map" index="28" instance=ExtResource( 6 )]
position = Vector2( 240, 112 )
tile = Vector2( 15, 7 )
movement_profile = SubResource( 4 )

[node name="WingedEater4" parent="Map" index="29" instance=ExtResource( 6 )]
position = Vector2( 64, 176 )
tile = Vector2( 4, 11 )
movement_profile = SubResource( 4 )

[node name="WingedEater5" parent="Map" index="30" instance=ExtResource( 6 )]
position = Vector2( 128, 208 )
tile = Vector2( 8, 13 )
movement_profile = SubResource( 4 )

[node name="WingedEater6" parent="Map" index="31" instance=ExtResource( 6 )]
position = Vector2( 176, 272 )
tile = Vector2( 11, 17 )
movement_profile = SubResource( 4 )
