[gd_scene load_steps=21 format=2]

[ext_resource path="res://old/battle/Battle.tscn" type="PackedScene" id=1]
[ext_resource path="res://old/gameplay/common/MovementProfile.gd" type="Script" id=2]
[ext_resource path="res://asset/sprite/colored_transparent_packed.png" type="Texture" id=3]
[ext_resource path="res://old/gameplay/entity/obstacle/plant/Tree.tscn" type="PackedScene" id=4]
[ext_resource path="res://old/campaign/alpha/biomes/Neutral.tres" type="Resource" id=5]
[ext_resource path="res://old/gameplay/entity/creature/summoner/Summoner.tscn" type="PackedScene" id=6]
[ext_resource path="res://old/gameplay/entity/creature/armor-knight/ArmorKnight.tscn" type="PackedScene" id=7]
[ext_resource path="res://old/gameplay/entity/obstacle/Rock.tscn" type="PackedScene" id=8]
[ext_resource path="res://old/gameplay/entity/element/fire/Fire.tscn" type="PackedScene" id=9]
[ext_resource path="res://old/gameplay/entity/creature/hell-beast/HellBeast.tscn" type="PackedScene" id=10]

[sub_resource type="AtlasTexture" id=1]
resource_local_to_scene = true
atlas = ExtResource( 3 )
region = Rect2( 64, 32, 16, 16 )

[sub_resource type="Resource" id=2]
resource_local_to_scene = true
resource_name = "MovementProfile"
script = ExtResource( 2 )
mask = 3
operation = 0

[sub_resource type="Resource" id=3]
resource_local_to_scene = true
resource_name = "MovementProfile"
script = ExtResource( 2 )
mask = 17
operation = 0

[sub_resource type="Resource" id=4]
resource_local_to_scene = true
resource_name = "MovementProfile"
script = ExtResource( 2 )
mask = 17
operation = 0

[sub_resource type="Resource" id=5]
resource_local_to_scene = true
resource_name = "MovementProfile"
script = ExtResource( 2 )
mask = 17
operation = 0

[sub_resource type="Resource" id=6]
resource_local_to_scene = true
resource_name = "MovementProfile"
script = ExtResource( 2 )
mask = 17
operation = 0

[sub_resource type="Resource" id=7]
resource_local_to_scene = true
resource_name = "MovementProfile"
script = ExtResource( 2 )
mask = 17
operation = 0

[sub_resource type="Resource" id=8]
resource_local_to_scene = true
resource_name = "MovementProfile"
script = ExtResource( 2 )
mask = 5
operation = 0

[sub_resource type="Resource" id=9]
resource_local_to_scene = true
resource_name = "MovementProfile"
script = ExtResource( 2 )
mask = 40
operation = 0

[sub_resource type="Resource" id=10]
resource_local_to_scene = true
resource_name = "MovementProfile"
script = ExtResource( 2 )
mask = 17
operation = 0

[node name="Battle" instance=ExtResource( 1 )]

[node name="Map" parent="." index="2"]
scale = Vector2( 1.98696, 1.99051 )
tile_data = PoolIntArray( 0, 12, 18, 1, 12, 19, 2, 12, 19, 3, 12, 19, 4, 12, 19, 5, 12, 19, 6, 12, 19, 7, 12, 19, 8, 12, 20, 9, 10, 0, 10, 10, 0, 11, 10, 0, 12, 12, 18, 13, 12, 19, 14, 12, 19, 15, 12, 20, 16, 1, 0, 17, 12, 18, 18, 12, 19, 19, 12, 19, 20, 12, 20, 65536, 12, 65554, 65537, 12, 196626, 65538, 12, 131091, 65539, 12, 131091, 65540, 12, 131091, 65541, 12, 131091, 65542, 12, 131091, 65543, 12, 131091, 65544, 12, 131092, 65545, 10, 0, 65546, 10, 0, 65547, 10, 0, 65548, 12, 65554, 65549, 12, 196626, 65550, 12, 131091, 65551, 12, 131092, 65552, 1, 0, 65553, 12, 131090, 65554, 12, 131091, 65555, 12, 196627, 65556, 12, 65556, 131072, 12, 65554, 131073, 12, 65556, 131074, 1, 0, 131075, 1, 0, 131076, 1, 0, 131077, 1, 0, 131078, 1, 0, 131079, 1, 0, 131080, 1, 0, 131081, 10, 0, 131082, 10, 0, 131083, 10, 0, 131084, 12, 65554, 131085, 12, 65556, 131086, 1, 0, 131087, 1, 0, 131088, 1, 0, 131089, 1, 0, 131090, 1, 0, 131091, 12, 65554, 131092, 12, 65556, 196608, 12, 65554, 196609, 12, 65556, 196610, 1, 0, 196611, 1610612746, 0, 196612, 1610612746, 0, 196613, 1610612746, 0, 196614, 1610612746, 0, 196615, 1610612746, 0, 196616, 1610612746, 0, 196617, 10, 0, 196618, 10, 0, 196619, 10, 0, 196620, 12, 65554, 196621, 12, 65556, 196622, 1, 0, 196623, 1610612746, 0, 196624, 1610612746, 0, 196625, 1610612746, 0, 196626, 1, 0, 196627, 12, 65554, 196628, 12, 65556, 262144, 12, 65554, 262145, 12, 65556, 262146, 1, 0, 262147, 1610612746, 0, 262148, 1610612746, 0, 262149, 10, 0, 262150, 10, 0, 262151, 1610612746, 0, 262152, 1610612746, 0, 262153, 10, 0, 262154, 1610612746, 0, 262155, 10, 0, 262156, 12, 65554, 262157, 12, 65556, 262158, 1, 0, 262159, 1610612746, 0, 262160, 1610612746, 0, 262161, 1610612746, 0, 262162, 1, 0, 262163, 12, 65554, 262164, 12, 65556, 327680, 12, 65554, 327681, 12, 65556, 327682, 1, 0, 327683, 1610612746, 0, 327684, 1610612746, 0, 327685, 1610612746, 0, 327686, 1610612746, 0, 327687, 1610612746, 0, 327688, 1610612746, 0, 327689, 1610612746, 0, 327690, 1610612746, 0, 327691, 10, 0, 327692, 12, 65554, 327693, 12, 65556, 327694, 1, 0, 327695, 1610612746, 0, 327696, 1610612746, 0, 327697, 1610612746, 0, 327698, 1, 0, 327699, 12, 65554, 327700, 12, 65556, 393216, 12, 65554, 393217, 12, 65556, 393218, 1, 0, 393219, 1, 0, 393220, 1, 0, 393221, 1, 0, 393222, 1, 0, 393223, 1, 0, 393224, 1, 0, 393225, 10, 0, 393226, 1610612746, 0, 393227, 10, 0, 393228, 12, 131090, 393229, 12, 131092, 393230, 1, 0, 393231, 1610612746, 0, 393232, 1610612746, 0, 393233, 1610612746, 0, 393234, 1, 0, 393235, 12, 65554, 393236, 12, 65556, 458752, 12, 65554, 458753, 12, 262162, 458754, 12, 19, 458755, 12, 20, 458756, 1, 0, 458757, 12, 18, 458758, 12, 19, 458759, 12, 19, 458760, 12, 20, 458761, 10, 0, 458762, 10, 0, 458763, 10, 0, 458764, 1, 0, 458765, 1, 0, 458766, 1, 0, 458767, 9, 0, 458768, 9, 0, 458769, 9, 0, 458770, 1, 0, 458771, 12, 65554, 458772, 12, 65556, 524288, 12, 65554, 524289, 12, 196626, 524290, 12, 131091, 524291, 12, 131092, 524292, 1, 0, 524293, 12, 131090, 524294, 12, 131091, 524295, 12, 196627, 524296, 12, 65556, 524297, 10, 0, 524298, 10, 0, 524299, 10, 0, 524300, 1610612746, 0, 524301, 1610612746, 0, 524302, 1610612746, 0, 524303, 9, 0, 524304, 9, 0, 524305, 9, 0, 524306, 1, 0, 524307, 12, 65554, 524308, 12, 65556, 589824, 12, 65554, 589825, 12, 65556, 589826, 1, 0, 589827, 1, 0, 589828, 1, 0, 589829, 1, 0, 589830, 1, 0, 589831, 12, 131090, 589832, 12, 131092, 589833, 10, 0, 589834, 10, 0, 589835, 10, 0, 589836, 1, 0, 589837, 1, 0, 589838, 1, 0, 589839, 9, 0, 589840, 9, 0, 589841, 9, 0, 589842, 1, 0, 589843, 12, 65554, 589844, 12, 65556, 655360, 12, 65554, 655361, 12, 65556, 655362, 1, 0, 655363, 1610612746, 0, 655364, 1610612746, 0, 655365, 1610612746, 0, 655366, 1, 0, 655367, 1, 0, 655368, 1, 0, 655369, 10, 0, 655370, 10, 0, 655371, 10, 0, 655372, 12, 18, 655373, 12, 20, 655374, 1, 0, 655375, 1610612746, 0, 655376, 1610612746, 0, 655377, 1610612746, 0, 655378, 1, 0, 655379, 12, 65554, 655380, 12, 65556, 720896, 12, 65554, 720897, 12, 65556, 720898, 1, 0, 720899, 1610612746, 0, 720900, 10, 0, 720901, 1610612746, 0, 720902, 1610612746, 0, 720903, 12, 18, 720904, 12, 20, 720905, 1610612746, 0, 720906, 10, 0, 720907, 10, 0, 720908, 12, 65554, 720909, 12, 65556, 720910, 1, 0, 720911, 1610612746, 0, 720912, 1610612746, 0, 720913, 1610612746, 0, 720914, 1, 0, 720915, 12, 65554, 720916, 12, 65556, 786432, 12, 65554, 786433, 12, 65556, 786434, 1, 0, 786435, 1610612746, 0, 786436, 10, 0, 786437, 1610612746, 0, 786438, 1610612746, 0, 786439, 12, 131090, 786440, 12, 131092, 786441, 1610612746, 0, 786442, 10, 0, 786443, 10, 0, 786444, 12, 65554, 786445, 12, 65556, 786446, 1, 0, 786447, 1610612746, 0, 786448, 1610612746, 0, 786449, 1610612746, 0, 786450, 1, 0, 786451, 12, 65554, 786452, 12, 65556, 851968, 12, 65554, 851969, 12, 65556, 851970, 1, 0, 851971, 1610612746, 0, 851972, 1610612746, 0, 851973, 1610612746, 0, 851974, 1, 0, 851975, 1, 0, 851976, 1, 0, 851977, 10, 0, 851978, 10, 0, 851979, 10, 0, 851980, 12, 65554, 851981, 12, 65556, 851982, 1, 0, 851983, 1610612746, 0, 851984, 1610612746, 0, 851985, 1610612746, 0, 851986, 1, 0, 851987, 12, 65554, 851988, 12, 65556, 917504, 12, 65554, 917505, 12, 65556, 917506, 1, 0, 917507, 1, 0, 917508, 1, 0, 917509, 1, 0, 917510, 1, 0, 917511, 12, 18, 917512, 12, 20, 917513, 10, 0, 917514, 10, 0, 917515, 10, 0, 917516, 12, 65554, 917517, 12, 65556, 917518, 1, 0, 917519, 1, 0, 917520, 1, 0, 917521, 1, 0, 917522, 1, 0, 917523, 12, 65554, 917524, 12, 65556, 983040, 12, 65554, 983041, 12, 262162, 983042, 12, 19, 983043, 12, 19, 983044, 12, 19, 983045, 12, 19, 983046, 12, 19, 983047, 12, 262163, 983048, 12, 65556, 983049, 10, 0, 983050, 10, 0, 983051, 10, 0, 983052, 12, 65554, 983053, 12, 262162, 983054, 12, 19, 983055, 12, 19, 983056, 12, 19, 983057, 12, 19, 983058, 12, 19, 983059, 12, 262163, 983060, 12, 65556, 1048576, 12, 65554, 1048577, 12, 0, 1048578, 12, 0, 1048579, 12, 196626, 1048580, 12, 131091, 1048581, 12, 131091, 1048582, 12, 131091, 1048583, 12, 131091, 1048584, 12, 131092, 1048585, 10, 0, 1048586, 10, 0, 1048587, 10, 0, 1048588, 12, 131090, 1048589, 12, 131091, 1048590, 12, 131091, 1048591, 12, 131091, 1048592, 12, 131091, 1048593, 12, 196627, 1048594, 12, 0, 1048595, 12, 0, 1048596, 12, 65556, 1114112, 12, 65554, 1114113, 12, 0, 1114114, 12, 0, 1114115, 12, 65556, 1114116, 2, 0, 1114117, 2, 0, 1114118, 2, 0, 1114119, 2, 0, 1114120, 2, 0, 1114121, 1610612746, 0, 1114122, 1610612746, 0, 1114123, 1610612746, 0, 1114124, 2, 0, 1114125, 2, 0, 1114126, 2, 0, 1114127, 2, 0, 1114128, 2, 0, 1114129, 12, 65554, 1114130, 12, 0, 1114131, 12, 0, 1114132, 12, 65556, 1179648, 12, 131090, 1179649, 12, 131091, 1179650, 12, 131091, 1179651, 12, 131092, 1179652, 2, 0, 1179653, 2, 0, 1179654, 2, 0, 1179655, 2, 0, 1179656, 2, 0, 1179657, 1610612746, 0, 1179658, 1610612746, 0, 1179659, 1610612746, 0, 1179660, 2, 0, 1179661, 2, 0, 1179662, 2, 0, 1179663, 2, 0, 1179664, 2, 0, 1179665, 12, 131090, 1179666, 12, 131091, 1179667, 12, 131091, 1179668, 12, 131092, 1245184, -1073741810, 0, 1245185, -1073741811, 0, 1245186, -1073741811, 0, 1245187, -1073741811, 0, 1245188, -1073741811, 0, 1245189, -1073741811, 0, 1245190, -1073741811, 0, 1245191, -1073741811, 0, 1245192, 15, 0, 1245193, 1, 0, 1245194, 1, 0, 1245195, 1, 0, 1245196, -1073741809, 0, 1245197, -1073741811, 0, 1245198, -1073741811, 0, 1245199, -1073741811, 0, 1245200, -1073741811, 0, 1245201, -1073741811, 0, 1245202, -1073741811, 0, 1245203, -1073741811, 0, 1245204, 1610612750, 0, 1376255, -1073741824, 0, 1310720, -1073741824, 0, 1310721, -1073741824, 0, 1310722, -1073741824, 0, 1310723, -1073741824, 0, 1310724, -1073741824, 0, 1310725, -1073741824, 0, 1310726, -1073741824, 0, 1310727, -1073741824, 0, 1310728, 13, 0, 1310729, 1, 0, 1310730, 1, 0, 1310731, 1, 0, 1310732, 1610612749, 0, 1310733, -1073741824, 0, 1310734, -1073741824, 0, 1310735, -1073741824, 0, 1310736, -1073741824, 0, 1310737, -1073741824, 0, 1310738, -1073741824, 0, 1310739, -1073741824, 0, 1310740, -1073741824, 0, 1310741, -1073741824, 0 )
biome = ExtResource( 5 )

[node name="Tree" parent="Map" index="4" instance=ExtResource( 4 )]
position = Vector2( 64.4199, 273.297 )
texture = SubResource( 1 )
tile = Vector2( 4, 17 )
movement_profile = SubResource( 2 )

[node name="Tree2" parent="Map" index="5" instance=ExtResource( 4 )]
position = Vector2( 257.68, 273.297 )
texture = SubResource( 1 )
tile = Vector2( 16, 17 )
movement_profile = SubResource( 2 )

[node name="Tree3" parent="Map" index="6" instance=ExtResource( 4 )]
position = Vector2( 241.575, 273.297 )
texture = SubResource( 1 )
tile = Vector2( 15, 17 )
movement_profile = SubResource( 2 )

[node name="Tree4" parent="Map" index="7" instance=ExtResource( 4 )]
position = Vector2( 225.47, 273.297 )
texture = SubResource( 1 )
tile = Vector2( 14, 17 )
movement_profile = SubResource( 2 )

[node name="Tree5" parent="Map" index="8" instance=ExtResource( 4 )]
position = Vector2( 209.365, 273.297 )
texture = SubResource( 1 )
tile = Vector2( 13, 17 )
movement_profile = SubResource( 2 )

[node name="Tree6" parent="Map" index="9" instance=ExtResource( 4 )]
position = Vector2( 80.5249, 273.297 )
texture = SubResource( 1 )
tile = Vector2( 5, 17 )
movement_profile = SubResource( 2 )

[node name="Tree7" parent="Map" index="10" instance=ExtResource( 4 )]
position = Vector2( 96.6299, 273.297 )
texture = SubResource( 1 )
tile = Vector2( 6, 17 )
movement_profile = SubResource( 2 )

[node name="Tree8" parent="Map" index="11" instance=ExtResource( 4 )]
position = Vector2( 112.735, 273.297 )
texture = SubResource( 1 )
tile = Vector2( 7, 17 )
movement_profile = SubResource( 2 )

[node name="ArmorKnight" parent="Map" index="12" instance=ExtResource( 7 )]
position = Vector2( 161.05, 128.61 )
tile = Vector2( 10, 8 )
movement_profile = SubResource( 3 )

[node name="Summoner" parent="Map" index="13" instance=ExtResource( 6 )]
position = Vector2( 257.68, 48.2289 )
tile = Vector2( 16, 3 )
movement_profile = SubResource( 4 )

[node name="ArmorKnight2" parent="Map" index="14" instance=ExtResource( 7 )]
position = Vector2( 64.4199, 112.534 )
tile = Vector2( 4, 7 )
movement_profile = SubResource( 5 )

[node name="ArmorKnight3" parent="Map" index="15" instance=ExtResource( 7 )]
position = Vector2( 161.05, 16.0763 )
tile = Vector2( 10, 1 )
movement_profile = SubResource( 6 )

[node name="Summoner2" parent="Map" index="16" instance=ExtResource( 6 )]
position = Vector2( 257.68, 208.992 )
tile = Vector2( 16, 13 )
movement_profile = SubResource( 7 )

[node name="Rock" parent="Map" index="17" instance=ExtResource( 8 )]
position = Vector2( 257.68, 96.4578 )
tile = Vector2( 16, 6 )
movement_profile = SubResource( 8 )

[node name="Rock2" parent="Map" index="18" instance=ExtResource( 8 )]
position = Vector2( 225.47, 96.4578 )
tile = Vector2( 14, 6 )
movement_profile = SubResource( 8 )

[node name="Rock5" parent="Map" index="19" instance=ExtResource( 8 )]
position = Vector2( 273.785, 144.687 )
offset = Vector2( 16.1049, -48.2289 )
tile = Vector2( 17, 9 )
movement_profile = SubResource( 8 )

[node name="Rock6" parent="Map" index="20" instance=ExtResource( 8 )]
position = Vector2( 289.89, 160.763 )
tile = Vector2( 18, 10 )
movement_profile = SubResource( 8 )

[node name="Rock7" parent="Map" index="21" instance=ExtResource( 8 )]
position = Vector2( 289.89, 128.61 )
tile = Vector2( 18, 8 )
movement_profile = SubResource( 8 )

[node name="Rock8" parent="Map" index="22" instance=ExtResource( 8 )]
position = Vector2( 225.47, 128.61 )
tile = Vector2( 14, 8 )
movement_profile = SubResource( 8 )

[node name="Rock9" parent="Map" index="23" instance=ExtResource( 8 )]
position = Vector2( 128.84, 32.1526 )
tile = Vector2( 8, 2 )
movement_profile = SubResource( 8 )

[node name="Rock10" parent="Map" index="24" instance=ExtResource( 8 )]
position = Vector2( 128.84, 96.4578 )
tile = Vector2( 8, 6 )
movement_profile = SubResource( 8 )

[node name="Rock3" parent="Map" index="25" instance=ExtResource( 8 )]
position = Vector2( 225.47, 160.763 )
tile = Vector2( 14, 10 )
movement_profile = SubResource( 8 )

[node name="Rock4" parent="Map" index="26" instance=ExtResource( 8 )]
position = Vector2( 257.68, 160.763 )
tile = Vector2( 16, 10 )
movement_profile = SubResource( 8 )

[node name="Rock11" parent="Map" index="27" instance=ExtResource( 8 )]
position = Vector2( 112.735, 32.1526 )
tile = Vector2( 7, 2 )
movement_profile = SubResource( 8 )

[node name="Rock12" parent="Map" index="28" instance=ExtResource( 8 )]
position = Vector2( 112.735, 96.4578 )
tile = Vector2( 7, 6 )
movement_profile = SubResource( 8 )

[node name="Rock13" parent="Map" index="29" instance=ExtResource( 8 )]
position = Vector2( 112.735, 80.3815 )
tile = Vector2( 7, 5 )
movement_profile = SubResource( 8 )

[node name="Rock14" parent="Map" index="30" instance=ExtResource( 8 )]
position = Vector2( 112.735, 48.2289 )
tile = Vector2( 7, 3 )
movement_profile = SubResource( 8 )

[node name="Rock15" parent="Map" index="31" instance=ExtResource( 8 )]
position = Vector2( 128.84, 48.2289 )
tile = Vector2( 8, 3 )
movement_profile = SubResource( 8 )

[node name="Rock16" parent="Map" index="32" instance=ExtResource( 8 )]
position = Vector2( 128.84, 80.3815 )
tile = Vector2( 8, 5 )
movement_profile = SubResource( 8 )

[node name="Fire" parent="Map" index="33" instance=ExtResource( 9 )]
position = Vector2( 128.84, 273.297 )
tile = Vector2( 8, 17 )
movement_profile = SubResource( 9 )

[node name="Fire2" parent="Map" index="34" instance=ExtResource( 9 )]
position = Vector2( 193.26, 273.297 )
tile = Vector2( 12, 17 )
movement_profile = SubResource( 9 )

[node name="Fire3" parent="Map" index="35" instance=ExtResource( 9 )]
position = Vector2( 96.6299, 144.687 )
tile = Vector2( 6, 9 )
movement_profile = SubResource( 9 )

[node name="Fire4" parent="Map" index="36" instance=ExtResource( 9 )]
position = Vector2( 96.6299, 225.068 )
tile = Vector2( 6, 14 )
movement_profile = SubResource( 9 )

[node name="Fire5" parent="Map" index="37" instance=ExtResource( 9 )]
position = Vector2( 32.21, 225.068 )
tile = Vector2( 2, 14 )
movement_profile = SubResource( 9 )

[node name="Fire6" parent="Map" index="38" instance=ExtResource( 9 )]
position = Vector2( 32.21, 144.687 )
tile = Vector2( 2, 9 )
movement_profile = SubResource( 9 )

[node name="HellBeast" parent="Map" index="39" instance=ExtResource( 10 )]
position = Vector2( 64.4199, 64.3052 )
tile = Vector2( 4, 4 )
movement_profile = SubResource( 10 )
