[gd_scene load_steps=7 format=2]

[ext_resource path="res://asset/sprite/colored_transparent_packed.png" type="Texture" id=1]
[ext_resource path="res://old/ui/hud/hp/Heart.gd" type="Script" id=2]

[sub_resource type="AtlasTexture" id=1]
region = Rect2( 672, 160, 16, 16 )

[sub_resource type="AtlasTexture" id=2]
atlas = ExtResource( 1 )
region = Rect2( 640, 160, 16, 16 )

[sub_resource type="AtlasTexture" id=3]
atlas = ExtResource( 1 )
region = Rect2( 656, 160, 16, 16 )

[sub_resource type="AtlasTexture" id=4]
atlas = ExtResource( 1 )
region = Rect2( 672, 160, 16, 16 )

[node name="Heart" type="TextureRect"]
margin_left = 80.0
margin_right = 112.0
margin_bottom = 32.0
rect_min_size = Vector2( 32, 32 )
texture = SubResource( 1 )
expand = true
stretch_mode = 5
script = ExtResource( 2 )
__meta__ = {
"_edit_use_anchors_": false
}
TEXTURES = [ SubResource( 2 ), SubResource( 3 ), SubResource( 4 ) ]
