[gd_scene load_steps=3 format=2]

[ext_resource path="res://old/ui/gameover/GameOver.gd" type="Script" id=1]
[ext_resource path="res://old/ui/common/HeaderFont.tres" type="DynamicFont" id=2]

[node name="GameOver" type="Control"]
anchor_right = 1.0
anchor_bottom = 1.0
script = ExtResource( 1 )
__meta__ = {
"_edit_use_anchors_": false
}

[node name="Label" type="Label" parent="."]
anchor_left = 0.5
anchor_top = 0.5
anchor_right = 0.5
anchor_bottom = 0.5
margin_left = -200.0
margin_top = -50.0
margin_right = 200.0
margin_bottom = 50.0
custom_fonts/font = ExtResource( 2 )
text = "You died

Click to restart"
align = 1
valign = 1
__meta__ = {
"_edit_use_anchors_": false
}
