[gd_scene load_steps=3 format=2]

[ext_resource path="res://simulation/entity/Entity.gd" type="Script" id=1]
[ext_resource path="res://simulation/entity/Preview.gd" type="Script" id=2]

[node name="Entity" type="Node"]
script = ExtResource( 1 )

[node name="Spatial" type="Spatial" parent="."]
script = ExtResource( 2 )
