[gd_scene load_steps=4 format=2]

[ext_resource path="res://old/gameplay/property/turn/Turn.gd" type="Script" id=1]
[ext_resource path="res://old/gameplay/property/turn/RollsInitiative.gd" type="Script" id=2]
[ext_resource path="res://old/gameplay/effect/RollInitiativeEffect.gd" type="Script" id=3]

[node name="Turn" type="Node2D"]
script = ExtResource( 1 )

[node name="RollsInitiative" type="Node" parent="."]
script = ExtResource( 2 )
EFFECT_TYPES = [ ExtResource( 3 ) ]
APPLIES_EFFECT = true
