[gd_scene load_steps=2 format=2]

[ext_resource path="res://old/vfx/splash/SplashVFX.gd" type="Script" id=1]

[node name="SplashVFX" type="AnimatedSprite"]
script = ExtResource( 1 )

[connection signal="animation_finished" from="." to="." method="queue_free"]
