[gd_resource type="Resource" load_steps=10 format=2]

[ext_resource path="res://old/battle/map/entity_generator/EntityDensityGenerator.gd" type="Script" id=1]
[ext_resource path="res://old/battle/map/Biome.gd" type="Script" id=2]
[ext_resource path="res://old/battle/map/entity_generator/EntityAmountGenerator.gd" type="Script" id=3]
[ext_resource path="res://old/gameplay/entity/obstacle/Rock.tscn" type="PackedScene" id=4]
[ext_resource path="res://old/gameplay/entity/obstacle/plant/Bush.tscn" type="PackedScene" id=5]
[ext_resource path="res://old/gameplay/entity/creature/zombie/Zombie.tscn" type="PackedScene" id=6]

[sub_resource type="Resource" id=1]
resource_name = "EntityDensityGenerator"
script = ExtResource( 1 )
on_tile_type = "any"
entity_scn = ExtResource( 5 )
density = 0.05

[sub_resource type="Resource" id=2]
resource_name = "EntityDensityGenerator"
script = ExtResource( 1 )
on_tile_type = "any"
entity_scn = ExtResource( 4 )
density = 0.1

[sub_resource type="Resource" id=3]
resource_name = "EntityAmountGenerator"
script = ExtResource( 3 )
on_tile_type = [ "dirt" ]
entity_scn = ExtResource( 6 )
min_amount = 6
max_amount = 10

[resource]
resource_local_to_scene = true
resource_name = "Biome"
script = ExtResource( 2 )
gen_type = 1
entity_generators = [ SubResource( 1 ), SubResource( 2 ), SubResource( 3 ) ]
