[gd_scene load_steps=8 format=2]

[ext_resource path="res://old/gameplay/spell/Spell.tscn" type="PackedScene" id=1]
[ext_resource path="res://old/gameplay/common/MovementProfile.gd" type="Script" id=2]
[ext_resource path="res://old/gameplay/command/SelectTile.gd" type="Script" id=3]
[ext_resource path="res://old/gameplay/command/NewEffect.gd" type="Script" id=4]
[ext_resource path="res://old/gameplay/command/OnSelf.gd" type="Script" id=5]

[sub_resource type="Resource" id=1]
resource_name = "MovementProfile"
script = ExtResource( 2 )
mask = 0
operation = 0

[sub_resource type="Resource" id=2]
resource_name = "MovementProfile"
script = ExtResource( 2 )
mask = 0
operation = 1

[node name="Teleport" instance=ExtResource( 1 )]
spell_name = "Teleport"
description = "TELEPORT
(target range 1-99)

Teleport."

[node name="SelectTile" type="Node" parent="MainAbility" index="0"]
script = ExtResource( 3 )
RANGE = 20
movement_profile = SubResource( 1 )

[node name="OnSelf" type="Node" parent="MainAbility" index="1"]
script = ExtResource( 5 )

[node name="Move" type="Node" parent="MainAbility/OnSelf" index="0"]
script = ExtResource( 4 )
effect_type = "MoveEffect"
tile = 1
movement_profile = SubResource( 2 )
trait/relative = false
