[gd_scene load_steps=4 format=2]

[ext_resource path="res://old/gameplay/property/ai/striker/Striker.gd" type="Script" id=1]
[ext_resource path="res://old/gameplay/effect/NewRoundEffect.gd" type="Script" id=2]
[ext_resource path="res://old/gameplay/property/ai/striker/TicksCooldown.gd" type="Script" id=3]

[node name="Striker" type="Node2D"]
script = ExtResource( 1 )

[node name="TicksCooldown" type="Node" parent="."]
script = ExtResource( 3 )
EFFECT_TYPES = [ ExtResource( 2 ) ]
APPLIES_EFFECT = true
