[gd_scene load_steps=7 format=2]

[ext_resource path="res://view/map/bodyview/BodyView.tscn" type="PackedScene" id=1]
[ext_resource path="res://view/map/bodyview/ControlledBodyView.gd" type="Script" id=2]
[ext_resource path="res://view/billboard/BillboardShader.gdshader" type="Shader" id=3]
[ext_resource path="res://asset/sprite/gimoi.png" type="Texture" id=4]

[sub_resource type="AtlasTexture" id=2]
flags = 16
atlas = ExtResource( 4 )
region = Rect2( 0, 0, 32, 32 )

[sub_resource type="ShaderMaterial" id=3]
resource_local_to_scene = true
shader = ExtResource( 3 )
shader_param/scale = Vector3( 2, 2, 2 )
shader_param/sprite = SubResource( 2 )

[node name="BodyViewController" instance=ExtResource( 1 )]
script = ExtResource( 2 )

[node name="Sprite" parent="." index="1"]
material_override = SubResource( 3 )

[node name="Tween" type="Tween" parent="." index="3"]
