[gd_scene load_steps=8 format=2]

[ext_resource path="res://old/gameplay/entity/Entity.tscn" type="PackedScene" id=1]
[ext_resource path="res://old/gameplay/property/actor/Actor.tscn" type="PackedScene" id=2]
[ext_resource path="res://old/gameplay/property/desctructible/Destructible.tscn" type="PackedScene" id=3]
[ext_resource path="res://old/gameplay/property/turn/Turn.tscn" type="PackedScene" id=4]
[ext_resource path="res://old/gameplay/entity/creature/Monster.gd" type="Script" id=5]
[ext_resource path="res://old/gameplay/common/MovementProfile.gd" type="Script" id=6]

[sub_resource type="Resource" id=1]
resource_local_to_scene = true
resource_name = "MovementProfile"
script = ExtResource( 6 )
mask = 17
operation = 0

[node name="Creature" instance=ExtResource( 1 )]
movement_profile = SubResource( 1 )

[node name="Actor" parent="." index="0" instance=ExtResource( 2 )]

[node name="Turn" parent="." index="1" instance=ExtResource( 4 )]

[node name="Destructible" parent="." index="2" instance=ExtResource( 3 )]

[node name="Monster" type="Node2D" parent="." index="3"]
script = ExtResource( 5 )
